{
  "definitions": {},
  "$schema": "http://json-schema.org/draft-07/schema#",
  "$id": "http://example.com/root.json",
  "type": "array",
  "title": "The Root Schema",
  "items": {
    "$id": "#/items",
    "type": "object",
    "title": "The Items Schema",
    "required": [
      "name",
      "energy",
      "type",
      "production"
    ],
    "properties": {
      "name": {
        "$id": "#/items/properties/name",
        "type": "string",
        "title": "The name of candy",
        "default": "",
        "examples": [
          "Toffix"
        ],
        "pattern": "^(.*)$"
      },
      "energy": {
        "$id": "#/items/properties/energy",
        "type": "integer",
        "title": "The energy of candy ",
        "default": 0,
        "examples": [
          50
        ],
        "minimum": 0.0
      },
      "type": {
        "$id": "#/items/properties/type",
        "type": "string",
        "title": "The type of candy",
        "description": "Common description of candy",
        "default": "",
        "examples": [
          "toffee filling with orange"
        ],
        "pattern": "^(.*)$"
      },
      "water": {
        "$id": "#/items/properties/ingredients/properties/water",
        "type": "integer",
        "title": "The count of water",
        "default": 0,
        "examples": [
          100
        ],
        "minimum": 0.0
      },
      "sugar": {
        "$id": "#/items/properties/ingredients/properties/sugar",
        "type": "integer",
        "title": "The count of sugar",
        "default": 0,
        "examples": [
          50
        ],
        "minimum": 0.0
      },
      "fructose": {
        "$id": "#/items/properties/ingredients/properties/fructose",
        "type": "integer",
        "title": "The count of fructose",
        "default": 0,
        "examples": [
          5
        ],
        "minimum": 0.0
      },
      "vanillin": {
        "$id": "#/items/properties/ingredients/properties/vanillin",
        "type": "integer",
        "title": "The count of vanillin",
        "default": 0,
        "examples": [
          10
        ],
        "minimum": 0.0
      }
    },
    "fat": {
      "$id": "#/items/properties/value/properties/fat",
      "type": "number",
      "title": "The count of fat",
      "default": 0.0,
      "examples": [
        5.4
      ],
      "minimum": 0.0
    },
    "protein": {
      "$id": "#/items/properties/value/properties/protein",
      "type": "integer",
      "title": "The count of protein",
      "default": 0,
      "examples": [
        0
      ],
      "minimum": 0.0
    },
    "carbohydrate": {
      "$id": "#/items/properties/value/properties/carbohydrate",
      "type": "number",
      "title": "The count of carbohydrate",
      "default": 0.0,
      "examples": [
        85.4
      ],
      "minimum": 0.0
    }
  },
  "production": {
    "$id": "#/items/properties/production",
    "type": "string",
    "title": "The name of production",
    "default": "",
    "examples": [
      "Elvan"
    ],
    "pattern": "^(.*)$"
  }
}

